# Blender MTL File: 'None'
# Material Count: 1

newmtl Material_#1039
Ns 94.117647
Ka 1.000000 1.000000 1.000000
Kd 0.467451 0.467451 0.467451
Ks 0.449020 0.449020 0.449020
Ke 0.000000 0.000000 0.000000
Ni 1.000000
d 1.000000
illum 2
