# Blender MTL File: 'None'
# Material Count: 4

newmtl 01___Airplane
Ns 23.529412
Ka 1.000000 1.000000 1.000000
Kd 1.000000 1.000000 1.000000
Ks 0.540000 0.540000 0.540000
Ke 0.000000 0.000000 0.000000
Ni 1.500000
d 1.000000
illum 2
map_Kd sep/Airplane_v1_L3.123caa2f428d-e153-467b-928f-c981d17f80c6/11665_Airplane_diff.jpg
map_Ka sep/Airplane_v1_L3.123caa2f428d-e153-467b-928f-c981d17f80c6/11665_Airplane_diff.jpg

newmtl 02___Wheel_left
Ns 23.529412
Ka 1.000000 1.000000 1.000000
Kd 1.000000 1.000000 1.000000
Ks 0.540000 0.540000 0.540000
Ke 0.000000 0.000000 0.000000
Ni 1.500000
d 1.000000
illum 2
map_Kd sep/Airplane_v1_L3.123caa2f428d-e153-467b-928f-c981d17f80c6/11665_Airplane_diff.jpg
map_Ka sep/Airplane_v1_L3.123caa2f428d-e153-467b-928f-c981d17f80c6/11665_Airplane_diff.jpg

newmtl 03___Wheel_right
Ns 23.529412
Ka 1.000000 1.000000 1.000000
Kd 1.000000 1.000000 1.000000
Ks 0.540000 0.540000 0.540000
Ke 0.000000 0.000000 0.000000
Ni 1.500000
d 1.000000
illum 2
map_Kd sep/Airplane_v1_L3.123caa2f428d-e153-467b-928f-c981d17f80c6/11665_Airplane_diff.jpg
map_Ka sep/Airplane_v1_L3.123caa2f428d-e153-467b-928f-c981d17f80c6/11665_Airplane_diff.jpg

newmtl 04___Rotor
Ns 23.529412
Ka 1.000000 1.000000 1.000000
Kd 1.000000 1.000000 1.000000
Ks 0.540000 0.540000 0.540000
Ke 0.000000 0.000000 0.000000
Ni 1.500000
d 1.000000
illum 2
map_Kd sep/Airplane_v1_L3.123caa2f428d-e153-467b-928f-c981d17f80c6/11665_Airplane_diff.jpg
map_Ka sep/Airplane_v1_L3.123caa2f428d-e153-467b-928f-c981d17f80c6/11665_Airplane_diff.jpg
